<?xml version="1.0" encoding="utf-8"?>
<!-- Generator: Adobe Illustrator 21.1.0, SVG Export Plug-In . SVG Version: 6.00 Build 0)  -->
<svg version="1.1" id="Layer_1" xmlns="http://www.w3.org/2000/svg" xmlns:xlink="http://www.w3.org/1999/xlink" x="0px" y="0px"
	 viewBox="0 0 100 100" style="enable-background:new 0 0 100 100;" xml:space="preserve">
<style type="text/css">
	.st0{fill:none;stroke:#000081;stroke-width:3;stroke-linecap:round;stroke-miterlimit:10;}
	.st1{fill:none;}
</style>
<title>burger_nav_closed</title>
<g id="Layer_2">
	<g id="Artwork">
		<line class="st0" x1="23.9" y1="35" x2="75.4" y2="35"/>
		<line class="st0" x1="23.9" y1="50" x2="75.4" y2="50"/>
		<line class="st0" x1="23.9" y1="65" x2="75.4" y2="65"/>
		<rect id="_Slice_" class="st1" width="100" height="100"/>
	</g>
</g>
</svg>
