<svg version="1.1" id="Layer_1" xmlns="http://www.w3.org/2000/svg" xmlns:xlink="http://www.w3.org/1999/xlink" x="0px" y="0px"
	 viewBox="0 0 25.5 27" style="enable-background:new 0 0 25.5 27;" xml:space="preserve" preserveAspectRatio="xMinYMid">
<style type="text/css">
	.st0{fill:#FFFFFF;}
</style>
<title>pdf_icon</title>
<g id="pdf">
	<path class="st0" d="M25.4,7.4L18.5,0c-0.1,0-0.3,0-0.4,0H7.8C6.7,0,5.8,0.9,5.8,2.1v7.3H1.6C0.7,9.4,0,10,0,10.9l0,0v7.8
		c0,0.9,0.7,1.6,1.6,1.6l0,0h4.1v4.6c0,1.2,0.9,2.1,2.1,2.1h15.6c1.2,0,2.1-0.9,2.1-2.1V7.7C25.6,7.7,25.6,7.5,25.4,7.4 M18.3,1.4
		l5.7,5.9h-5.7V1.4z M1.6,19.4c-0.3,0-0.5-0.3-0.5-0.5V11c0-0.3,0.3-0.5,0.5-0.5h14c0.3,0,0.5,0.3,0.5,0.5v7.7
		c0,0.3-0.2,0.5-0.5,0.5L1.6,19.4L1.6,19.4z M24.5,24.9c0,0.5-0.4,1.1-1.1,1.1H7.8c-0.5,0-1.1-0.4-1.1-1l0,0v-4.6h8.9
		c0.9,0,1.6-0.7,1.6-1.6l0,0V11c0-0.9-0.7-1.6-1.6-1.6H6.8V2.1C6.8,1.5,7.2,1,7.8,1l0,0h9.4v6.8c0,0.3,0.3,0.4,0.5,0.5h6.8
		C24.5,8.3,24.5,24.9,24.5,24.9z"/>
	<path class="st0" d="M6.2,13.2c-0.2-0.2-0.4-0.4-0.6-0.4H4.5H3.1v4.4h1.1v-1.6h1.5l0.4-0.3c0.2-0.1,0.3-0.3,0.4-0.4
		c0.1-0.3,0.1-0.5,0-0.7C6.6,13.9,6.5,13.6,6.2,13.2 M5.5,14.6c-0.1,0.1-0.2,0.2-0.3,0.2H4.5H4.1v-1.3h1.1c0.1,0,0.3,0,0.4,0
		c0.1,0.1,0.1,0.3,0,0.4c0,0.1,0,0.2,0,0.4"/>
	<path class="st0" d="M10.8,14c-0.1-0.3-0.2-0.5-0.5-0.7c-0.2-0.2-0.4-0.4-0.6-0.4H8.9H7.3v4.4H9c0.3,0,0.5,0,0.8,0
		c0.3-0.2,0.4-0.4,0.6-0.6c0.2-0.2,0.4-0.5,0.4-0.8s0.1-0.6,0-1c0.1-0.4,0.1-0.7,0-1.1 M10,15.8c-0.1,0.2-0.1,0.3-0.3,0.4l-0.4,0.5
		H8.3v-3.2h1.2c0.2,0,0.3,0.1,0.4,0.2c0.1,0.1,0.2,0.3,0.3,0.5c0,0.3,0,0.5,0,0.8c0,0.3,0,0.5,0,0.8"/>
	<polygon class="st0" points="14.9,13.5 14.9,12.8 11.7,12.8 11.7,17.3 12.7,17.3 12.7,15.3 14.5,15.3 14.5,14.6 12.7,14.6 
		12.7,13.5 	"/>
</g>
</svg>
